Analyse quantitative - M2 Villes et environnements urbains - Rappel avant la troisième séance
…
# Voici deux versions du ecodage de l'âge des personnes recensées, soit la variable AGEREV. La première est lisible, la deuxième est commentée ligne par ligne.

# Version plus lisible sans les commentaires
mutate(
  rp,
  age_rec = 
    ifelse(
      AGEREV > 17,
      "Majeur.e",
      "Mineur.e"
    )
)

# A tibble: 377,833 x 11
   annee   ARM IPONDI   CS1  IMMI  SEXE AGEREV NPERR  NBPI LPRM  age_rec 
   <dbl> <dbl>  <dbl> <dbl> <dbl> <dbl>  <dbl> <dbl> <dbl> <chr> <chr>   
 1  2019 69388  1.18      8     2     1     14     3     3 3     Mineur.e
 2  2019 69388  1.18      3     2     2     43     3     3 1     Majeur.e
 3  2019 69388  1.18      8     2     1     11     3     3 3     Mineur.e
 4  2019 69384  2.97      8     1     2     85     1     4 1     Majeur.e
 5  2019 69383  0.956     8     2     1     23     1     1 1     Majeur.e
 6  2019 69388  1.07      4     2     1     28     1     1 1     Majeur.e
 7  2019 69384  2.62      5     2     2     50     1     2 1     Majeur.e
 8  2019 69383  3.02      8     2     1     23     2     1 1     Majeur.e
 9  2019 69383  3.02      4     2     2     23     2     1 2     Majeur.e
10  2019 69383  2.95      6     2     1     21     1     3 1     Majeur.e
# i 377,823 more rows

# Version commentée
mutate( # J'utilise la fonction mutate pour créer une colonne
  rp, # Le premier argument de mutate, le tableau à transformer
  age_rec = # Le deuxième argument de mutate, le nom de la colonne à créer (à gauche du =) et la valeur que je lui donne (à droite du =)
    ifelse( # Elle sera créée à l'aide du test opérée par la fonction ifelse
      AGEREV > 17, # Le premier argument de ifelse, la condition
      "Majeur.e", # Le deuxième argument de ifelse, la valeur à donner si la condition est vérifiée,
      "Mineur.e" # Le troisième argument de ] ifelse, la valeur à donner si la condition n'est pas vérifié
    ) # Je ferme la parenthèse de la fonction ifelse
) # Je ferme la parenthèse de la fonction mutate

# A tibble: 377,833 x 11
   annee   ARM IPONDI   CS1  IMMI  SEXE AGEREV NPERR  NBPI LPRM  age_rec 
   <dbl> <dbl>  <dbl> <dbl> <dbl> <dbl>  <dbl> <dbl> <dbl> <chr> <chr>   
 1  2019 69388  1.18      8     2     1     14     3     3 3     Mineur.e
 2  2019 69388  1.18      3     2     2     43     3     3 1     Majeur.e
 3  2019 69388  1.18      8     2     1     11     3     3 3     Mineur.e
 4  2019 69384  2.97      8     1     2     85     1     4 1     Majeur.e
 5  2019 69383  0.956     8     2     1     23     1     1 1     Majeur.e
 6  2019 69388  1.07      4     2     1     28     1     1 1     Majeur.e
 7  2019 69384  2.62      5     2     2     50     1     2 1     Majeur.e
 8  2019 69383  3.02      8     2     1     23     2     1 1     Majeur.e
 9  2019 69383  3.02      4     2     2     23     2     1 2     Majeur.e
10  2019 69383  2.95      6     2     1     21     1     3 1     Majeur.e
# i 377,823 more rows
…
Dès qu’on veut utiliser plus d’un test (par exemple, obtenir trois valeurs : mineur.e, adulte, senior), il faut utiliser la fonction case_when.

# Version lisible
mutate(
  rp,
  age_rec =
    case_when(
      AGEREV < 18 ~ "Mineur.e",
      AGEREV > 17 & AGEREV < 65 ~ "Adulte",
      AGEREV > 64 ~ "Senior"
    )
)

# A tibble: 377,833 x 11
   annee   ARM IPONDI   CS1  IMMI  SEXE AGEREV NPERR  NBPI LPRM  age_rec 
   <dbl> <dbl>  <dbl> <dbl> <dbl> <dbl>  <dbl> <dbl> <dbl> <chr> <chr>   
 1  2019 69388  1.18      8     2     1     14     3     3 3     Mineur.e
 2  2019 69388  1.18      3     2     2     43     3     3 1     Adulte  
 3  2019 69388  1.18      8     2     1     11     3     3 3     Mineur.e
 4  2019 69384  2.97      8     1     2     85     1     4 1     Senior  
 5  2019 69383  0.956     8     2     1     23     1     1 1     Adulte  
 6  2019 69388  1.07      4     2     1     28     1     1 1     Adulte  
 7  2019 69384  2.62      5     2     2     50     1     2 1     Adulte  
 8  2019 69383  3.02      8     2     1     23     2     1 1     Adulte  
 9  2019 69383  3.02      4     2     2     23     2     1 2     Adulte  
10  2019 69383  2.95      6     2     1     21     1     3 1     Adulte  
# i 377,823 more rows

# Version commentée
mutate( # Je crée une variable grâce à la fonction mutate
  rp, # Le premier argument, je transforme le tableau rp
  age_rec = # Le deuxième argument, la variable à créer
    case_when( # Qui sera créee grâce à la fonction case_when
      # À gauche du "~", c'est la condition, à droite la valeur
      AGEREV < 18 ~ "Mineur.e", # Si AGEREV est strictement inférieur à 18, alors la variable prendra la valeur "Mineur.e"
      AGEREV > 17 & AGEREV < 65 ~ "Adulte", # Si AGEREV est strictement supérieur à 17 ET qu'AGEREV est strictement inférieur à 65, alors la variable prendra la valeur "Adulte"
      AGEREV > 64 ~ "Senior" # Si AGEREV est strictement supérieur à 64, alors la variable prendra la valeur "Senior"
    ) # Je ferme la parenthèse de la fonction case_when
) # Je ferme la parenthèse de la fonction mutate

# A tibble: 377,833 x 11
   annee   ARM IPONDI   CS1  IMMI  SEXE AGEREV NPERR  NBPI LPRM  age_rec 
   <dbl> <dbl>  <dbl> <dbl> <dbl> <dbl>  <dbl> <dbl> <dbl> <chr> <chr>   
 1  2019 69388  1.18      8     2     1     14     3     3 3     Mineur.e
 2  2019 69388  1.18      3     2     2     43     3     3 1     Adulte  
 3  2019 69388  1.18      8     2     1     11     3     3 3     Mineur.e
 4  2019 69384  2.97      8     1     2     85     1     4 1     Senior  
 5  2019 69383  0.956     8     2     1     23     1     1 1     Adulte  
 6  2019 69388  1.07      4     2     1     28     1     1 1     Adulte  
 7  2019 69384  2.62      5     2     2     50     1     2 1     Adulte  
 8  2019 69383  3.02      8     2     1     23     2     1 1     Adulte  
 9  2019 69383  3.02      4     2     2     23     2     1 2     Adulte  
10  2019 69383  2.95      6     2     1     21     1     3 1     Adulte  
# i 377,823 more rows
…
rp %>%
  mutate(
    IMMI = 
      fct(
        ifelse(IMMI == 1, 
               "Immigré.e",
               "Pas immigré.e"),
        levels = c("Pas immigré.e", "Immigré.e")
      )
  )

# A tibble: 377,833 x 11
   annee   ARM IPONDI   CS1 IMMI           SEXE AGEREV NPERR  NBPI LPRM  age_rec
   <dbl> <dbl>  <dbl> <dbl> <fct>         <dbl>  <dbl> <dbl> <dbl> <chr> <chr>  
 1  2019 69388  1.18      8 Pas immigré.e     1     14     3     3 3     Mineur~
 2  2019 69388  1.18      3 Pas immigré.e     2     43     3     3 1     Adulte 
 3  2019 69388  1.18      8 Pas immigré.e     1     11     3     3 3     Mineur~
 4  2019 69384  2.97      8 Immigré.e         2     85     1     4 1     Senior 
 5  2019 69383  0.956     8 Pas immigré.e     1     23     1     1 1     Adulte 
 6  2019 69388  1.07      4 Pas immigré.e     1     28     1     1 1     Adulte 
 7  2019 69384  2.62      5 Pas immigré.e     2     50     1     2 1     Adulte 
 8  2019 69383  3.02      8 Pas immigré.e     1     23     2     1 1     Adulte 
 9  2019 69383  3.02      4 Pas immigré.e     2     23     2     1 2     Adulte 
10  2019 69383  2.95      6 Pas immigré.e     1     21     1     3 1     Adulte 
# i 377,823 more rows
…
