Analyse quantitative - M2 Villes et environnements urbains - Séance 3
…
Transformer des données numériques avant de les représenter

Nous avons déjà vu que les verbes de dplyr tel mutate changeaient leur fonctionnement si un groupement avait été annoncé avec group_by. Les variables NBPI et NPERR représentent respectivement le nombre de pièces et le nombre de personnes dans le logement habité par la personne recensée. La variable LPRM prend la valeur 1 quand la personne recensée est la personne de référence du logement. Créez une nouvelle colonne sur le tableau du recensement de 2019 du nombre de pièces et de personnes moyens par arrondissement. La fonction weighted.mean qui prend les arguments x pour le vecteur et w pour les poids vous permettra de tenir compte de la pondération.

rp19 %>%
  filter(LPRM == 1) %>%
  group_by(arrondissements) %>%
  mutate(moy_NBPI = weighted.mean(x= NBPI, w = IPONDI),
         moy_NPERR = mean(x = NPERR, w = IPONDI))

# A tibble: 104,042 × 14
# Groups:   arrondissements [9]
   annee   ARM IPONDI CS1   IMMI  SEXE  AGEREV NPERR  NBPI LPRM  arrondissements
   <fct> <int>  <dbl> <fct> <fct> <fct>  <int> <int> <int> <fct> <fct>          
 1 2019  69388  1.18  3     Pas … Femme     43     3     3 1     8e             
 2 2019  69384  2.97  8     Pas … Femme     85     1     4 1     4e             
 3 2019  69383  0.956 8     Pas … Femme     23     1     1 1     3e             
 4 2019  69388  1.07  4     Pas … Femme     28     1     1 1     8e             
 5 2019  69384  2.62  5     Pas … Femme     50     1     2 1     4e             
 6 2019  69383  3.02  8     Pas … Femme     23     2     1 1     3e             
 7 2019  69383  2.95  6     Pas … Femme     21     1     3 1     3e             
 8 2019  69382  2.88  3     Pas … Femme     29     1     2 1     2nd            
 9 2019  69389  0.941 5     Pas … Femme     48     1     4 1     9e             
10 2019  69384  2.79  3     Pas … Femme     38     5     6 1     4e             
# ℹ 104,032 more rows
# ℹ 3 more variables: csp <fct>, moy_NBPI <dbl>, moy_NPERR <dbl>
…
